[gd_scene load_steps=3 format=2]

[ext_resource path="res://Levels/TemplateLevel.tscn" type="PackedScene" id=1]
[ext_resource path="res://Objects/Wallie/WalliePickup.tscn" type="PackedScene" id=2]

[node name="DevLevel0" instance=ExtResource( 1 )]

[node name="SpawnMap" parent="GameFlow" index="0"]
data = {
"cells": PoolIntArray( 0, 0, 196609, 1, 0, 196609, 2, 0, 1, 3, 0, 196609, 4, 0, 196609, 5, 0, 1, 6, 0, 1, 7, 0, 1, 8, 0, 1, 65533, 0, 262145, 65534, 0, 262145, 65535, 0, 196609, 0, 1, 262145, 1, 1, 262145, 2, 1, 524289, 3, 1, 1, 4, 1, 1, 5, 1, 1, 6, 1, -1610612735, 7, 1, 1, 8, 1, 1, 65533, 1, 262145, 65534, 1, 262145, 65535, 1, 262145, 0, 2, 524289, 1, 2, 524289, 2, 2, 524289, 3, 2, 524289, 4, 2, 524289, 5, 2, 1, 6, 2, 1, 7, 2, 1, 8, 2, 1, 65535, 2, 524289, 0, 3, 524289, 1, 3, 524289, 2, 3, 524289, 3, 3, 524289, 4, 3, 524289, 5, 3, 1, 6, 3, 1, 7, 3, 1, 8, 3, 1, 65535, 3, 524289, 131072, 3, 2, 2, 4, 196609, 65536, 4, 1, 65537, 4, 1, 65538, 4, 196609, 65539, 4, 196609, 65540, 4, 1, 131071, 4, 1, 2, 5, 196609, 65536, 5, 1, 65537, 5, 196609, 65538, 5, 196609, 65539, 5, 196609, 65540, 5, 1, 131071, 5, 1, 131074, 5, 0, 65536, 6, 1, 65537, 6, 1, 65538, 6, 1, 65539, 6, 1, 65540, 6, 1, 131071, 6, 1, 0, 65530, 1, 1, 65530, 1, 2, 65530, 1, 3, 65530, 1, 4, 65530, 1, 5, 65530, 1, 6, 65530, 1, 7, 65530, 1, 8, 65530, 1, 65533, 65530, 1, 65534, 65530, 1, 65535, 65530, 1, 0, 65531, 196609, 1, 65531, 1, 2, 65531, 1, 3, 65531, 1, 4, 65531, 1, 5, 65531, 196609, 6, 65531, 196609, 7, 65531, 1, 8, 65531, 1, 65533, 65531, 1, 65534, 65531, 1, 65535, 65531, 1, 0, 65532, 196609, 1, 65532, 196609, 2, 65532, 1, 3, 65532, 1, 4, 65532, 1, 5, 65532, 196609, 6, 65532, 1, 7, 65532, 1, 8, 65532, 1, 65533, 65532, 1, 65534, 65532, 1, 65535, 65532, 196609, 0, 65533, 196609, 1, 65533, 1, 2, 65533, 1, 3, 65533, 1, 4, 65533, 1, 5, 65533, 196609, 6, 65533, 1, 7, 65533, 1, 8, 65533, 1, 65533, 65533, 1, 65534, 65533, 196609, 65535, 65533, 196609, 65536, 65533, 2, 65540, 65533, 2, 0, 65534, 196609, 1, 65534, 196609, 2, 65534, 1, 3, 65534, 1, 4, 65534, 196609, 5, 65534, 196609, 6, 65534, 1, 7, 65534, 1, 8, 65534, 1, 65533, 65534, 196609, 65534, 65534, 196609, 65535, 65534, 196609, 131070, 65534, 196609, 196606, 65534, 3, 0, 65535, 262145, 1, 65535, 196609, 2, 65535, 196609, 3, 65535, 196609, 4, 65535, 196609, 5, 65535, 1, 6, 65535, 1, 7, 65535, 1, 8, 65535, 1, 65533, 65535, 262145, 65534, 65535, 262145, 65535, 65535, 262145, 65542, 65535, 2 )
}

[node name="WalliePickup" parent="GameFlow/SpawnMap/Pickups" index="0" instance=ExtResource( 2 )]
transform = Transform( 1, 0, 0, 0, 1, 0, 0, 0, 1, 3.5, 2.5, 5.5 )
value = 44

[node name="WalliePickup2" parent="GameFlow/SpawnMap/Pickups" index="1" instance=ExtResource( 2 )]
transform = Transform( 1, 0, 0, 0, 1, 0, 0, 0, 1, 3.5, 1.5, 1.5 )
value = 2

[node name="Camera" parent="." index="1" groups=[
"Camera",
]]

[node name="DirectionalLight" parent="Camera" index="0"]
light_energy = 2.0
